<?xml version="1.0" encoding="UTF-8" standalone="no"?>
<!-- Generator: Adobe Illustrator 18.0.0, SVG Export Plug-In . SVG Version: 6.00 Build 0)  -->

<svg
   version="1.1"
   id="Layer_1"
   x="0px"
   y="0px"
   width="133.84564"
   height="231.12878"
   viewBox="0 0 133.84564 231.12879"
   enable-background="new 0 0 841.9 595.3"
   xml:space="preserve"
   sodipodi:docname="Animal Farm Icon.svg"
   xmlns:inkscape="http://www.inkscape.org/namespaces/inkscape"
   xmlns:sodipodi="http://sodipodi.sourceforge.net/DTD/sodipodi-0.dtd"
   xmlns="http://www.w3.org/2000/svg"
   xmlns:svg="http://www.w3.org/2000/svg"><defs
   id="defs428807" /><sodipodi:namedview
   id="namedview428805"
   pagecolor="#ffffff"
   bordercolor="#000000"
   borderopacity="0.25"
   inkscape:showpageshadow="2"
   inkscape:pageopacity="0.0"
   inkscape:pagecheckerboard="0"
   inkscape:deskcolor="#d1d1d1"
   showgrid="false" />
<g
   id="g428748"
   inkscape:export-filename="donkey.svg"
   inkscape:export-xdpi="96"
   inkscape:export-ydpi="96"
   transform="translate(-634.97719,-61.316558)">
			<path
   fill="#a7a9ac"
   d="m 701.9,137.9 v 113.5 h -46.6 l 9.8,-98.5 c 0,0 -53.9,-65.1 -17.5,-90.3 18.9,-13.1 36.7,78.4 36.7,78.4 0,0 8.3,-3.1 17.6,-3.1 z"
   id="path428720" />
			<path
   fill="#bcbec0"
   d="m 701.9,247 -45.6,-7.1 c 0,0 -13.7,12.8 -7.4,33.6 6.3,20.8 35.3,18.9 52.9,18.9 V 247 Z"
   id="path428722" />
			<circle
   fill="#414042"
   cx="680.90002"
   cy="195.89999"
   r="6.3000002"
   id="circle428724" />
			<path
   fill="#939598"
   d="m 701.9,137.9 v 113.5 h 46.6 l -9.8,-98.5 c 0,0 53.9,-65.1 17.5,-90.3 -18.9,-13.1 -36.7,78.4 -36.7,78.4 0,0 -8.3,-3.1 -17.6,-3.1 z"
   id="path428726" />
			<path
   fill="#a7a9ac"
   d="m 701.9,247 45.6,-7.1 c 0,0 13.7,12.8 7.4,33.6 -6.3,20.8 -35.3,18.9 -52.9,18.9 V 247 Z"
   id="path428728" />
			<circle
   fill="#414042"
   cx="722.90002"
   cy="195.89999"
   r="6.3000002"
   id="circle428730" />
			<g
   id="g428736">
				<circle
   fill="#414042"
   cx="676.70001"
   cy="277.20001"
   r="7.5999999"
   id="circle428732" />
				<circle
   fill="#414042"
   cx="727.09998"
   cy="277.20001"
   r="7.5999999"
   id="circle428734" />
			</g>
			<path
   fill="#bcbec0"
   d="m 670.5,148.7 c 0,0 -21.2,-25.1 -25.1,-45.6 -3.9,-20.5 6.8,-27.2 9,-25.4 2.2,1.9 17.6,34.8 21.7,67.6 z"
   id="path428738" />
			<path
   fill="#a7a9ac"
   d="m 733.2,148.7 c 0,0 21.2,-25.1 25.1,-45.6 3.9,-20.5 -6.8,-27.2 -9,-25.4 -2.2,1.9 -17.6,34.8 -21.7,67.6 z"
   id="path428740" />
			<g
   id="g428746">
				<path
   fill="#414042"
   d="m 701.9,158 c 0,0 -8.4,4.1 -8.4,-11.8 0,0 -6,1.6 -6,-6.9 0,-8.5 7.2,-6 7.2,-6 0,0 -0.8,-6.6 7.2,-6.6 z"
   id="path428742" />
				<path
   fill="#414042"
   d="m 701.9,158 c 0,0 8.4,4.1 8.4,-11.8 0,0 6,1.6 6,-6.9 0,-8.5 -7.2,-6 -7.2,-6 0,0 0.8,-6.6 -7.2,-6.6 z"
   id="path428744" />
			</g>
		</g>
</svg>
